{
  "hosting": {
    "public": "dist/Platzi-store",
    "ignore": [
      "firebase.json",
      "**/.*",
      "**/node_modules/**"
    ],
    "rewrites":[ {
      "source":"**",
      "destination":"/index.html"
    }]
  }
}
